FIP 606
…
glimpse(survey4) # vai aparecer em um formato mais compacto

## Observations: 671
## Variables: 3
## $ year     <dbl> 2010, 2010, 2010, 2010, 2010, 2010, 2010, 2010, 2010,...
## $ location <chr> "Agua Santa", "Agua Santa", "Agua Santa", "Agua Santa...
## $ species  <chr> "Fgra", "Fgra", "Fgra", "Fgra", "Fgra", "Fgra", "Fgra...

A seleção também pode ser feita pela eliminação de algumas variáveis e preservação das demais. Vamos selecionar do data frame survey4 todas as variáveis menos “species”. Para isso, é colocado o sinal de menos na frente da coluna.

select(survey4, -species)

## # A tibble: 671 x 2
##     year location  
##    <dbl> <chr>     
##  1  2010 Agua Santa
##  2  2010 Agua Santa
##  3  2010 Agua Santa
##  4  2010 Agua Santa
##  5  2010 Agua Santa
##  6  2010 Agua Santa
##  7  2010 Agua Santa
##  8  2010 Agua Santa
##  9  2010 Agua Santa
## 10  2011 Agua Santa
## # ... with 661 more rows

# elimina várias colunas em um intervalo sequencial 
select(survey2, -c(residue:genotype)) 

## # A tibble: 671 x 6
##    field  year location   state   lat  long
##    <dbl> <dbl> <chr>      <chr> <dbl> <dbl>
##  1    25  2010 Agua Santa RS    -28.3 -52.1
##  2    25  2010 Agua Santa RS    -28.3 -52.1
##  3    25  2010 Agua Santa RS    -28.3 -52.0
##  4    25  2010 Agua Santa RS    -28.3 -52.0
##  5    25  2010 Agua Santa RS    -28.3 -52.0
##  6    26  2010 Agua Santa RS    -28.7 -51.2
##  7    26  2010 Agua Santa RS    -28.7 -51.2
##  8    26  2010 Agua Santa RS    -28.7 -51.2
##  9    26  2010 Agua Santa RS    -28.3 -51.5
## 10    36  2011 Agua Santa RS    -28.4 -53.0
## # ... with 661 more rows
…
# retorna o número de casos que atendem ao critério
count(filter(survey2, inc > 70)) 

## # A tibble: 1 x 1
##       n
##   <int>
## 1    18

# pode-se criar um dataframe
survey_inc75 <- filter(survey2, inc > 75) 

# múltiplos argumentos de seleção
filter(survey2, inc > 50 & sev > 10)

## # A tibble: 24 x 11
##    field  year location state   lat  long residue   inc   sev species
##    <dbl> <dbl> <chr>    <chr> <dbl> <dbl> <chr>   <dbl> <dbl> <chr>  
##  1     2  2010 Carazin~ RS    -28.3 -52.7 soybean  72.5  14.3 Fgra   
##  2     2  2010 Carazin~ RS    -28.3 -52.8 soybean  72.5  14.3 Fgra   
##  3     2  2010 Carazin~ RS    -28.3 -52.8 soybean  72.5  14.3 Fgra   
##  4     2  2010 Carazin~ RS    -28.3 -52.8 soybean  72.5  14.3 Fgra   
##  5     3  2010 Carazin~ RS    -28.3 -52.8 soybean  67    18.6 Fgra   
##  6     3  2010 Carazin~ RS    -28.3 -52.8 soybean  67    18.6 Fgra   
##  7     3  2010 Carazin~ RS    -28.3 -52.8 soybean  67    18.6 Fgra   
##  8     3  2010 Carazin~ RS    -28.3 -52.8 soybean  67    18.6 Fgra   
##  9     3  2010 Carazin~ RS    -28.3 -52.8 soybean  67    18.6 Fgra   
## 10    13  2009 Condor   RS    -27.6 -53.3 soybean  70.5  12.8 Fgra   
## # ... with 14 more rows, and 1 more variable: genotype <chr>

# note abaixo que o sinal de igual é ==
filter(survey2, location == "Carazinho" & year == "2010")

## # A tibble: 28 x 11
##    field  year location state   lat  long residue   inc   sev species
##    <dbl> <dbl> <chr>    <chr> <dbl> <dbl> <chr>   <dbl> <dbl> <chr>  
##  1     2  2010 Carazin~ RS    -28.3 -52.7 soybean  72.5  14.3 Fgra   
##  2     2  2010 Carazin~ RS    -28.3 -52.8 soybean  72.5  14.3 Fgra   
##  3     2  2010 Carazin~ RS    -28.3 -52.8 soybean  72.5  14.3 Fgra   
##  4     2  2010 Carazin~ RS    -28.3 -52.8 soybean  72.5  14.3 Fgra   
##  5     3  2010 Carazin~ RS    -28.3 -52.8 soybean  67    18.6 Fgra   
##  6     3  2010 Carazin~ RS    -28.3 -52.8 soybean  67    18.6 Fgra   
##  7     3  2010 Carazin~ RS    -28.3 -52.8 soybean  67    18.6 Fgra   
##  8     3  2010 Carazin~ RS    -28.3 -52.8 soybean  67    18.6 Fgra   
##  9     3  2010 Carazin~ RS    -28.3 -52.8 soybean  67    18.6 Fgra   
## 10     4  2010 Carazin~ RS    -28.3 -51.4 soybean  43.5  17.5 Fcor   
## # ... with 18 more rows, and 1 more variable: genotype <chr>
…
##  [1] 2011 2011 2011 2011 2011 2011 2011 2011 2011 2011 2011 2011 2011 2011
## [15] 2011 2011 2011 2011 2011 2011

# reordena pelo valor de severidade
survey2 <- arrange(survey2, severidade)
head(survey2$severidade, 20)

##  [1] 0.00 0.00 0.00 0.02 0.03 0.03 0.03 0.03 0.03 0.05 0.07 0.07 0.07 0.07
## [15] 0.09 0.09 0.09 0.09 0.09 0.09

# veja o resultado
arrange(survey2, -incidencia)

## # A tibble: 671 x 12
##    campo   ano local estado   lat  long residuo incidencia severidade
##    <dbl> <dbl> <chr> <chr>  <dbl> <dbl> <chr>        <dbl>      <dbl>
##  1    15  2009 Palm~ RS     -27.8 -53.4 corn          90.0      18.5 
##  2    15  2009 Palm~ RS     -27.8 -53.4 corn          90.0      18.5 
##  3    15  2009 Palm~ RS     -27.8 -53.4 corn          90.0      18.5 
##  4     2  2010 Cara~ RS     -28.3 -52.7 soybean       72.5      14.3 
##  5     2  2010 Cara~ RS     -28.3 -52.8 soybean       72.5      14.3 
##  6     2  2010 Cara~ RS     -28.3 -52.8 soybean       72.5      14.3 
##  7     2  2010 Cara~ RS     -28.3 -52.8 soybean       72.5      14.3 
##  8    24  2009 Lage~ RS     -28.1 -52.2 soybean       71         5.22
##  9    24  2009 Lage~ RS     -28.1 -52.2 soybean       71         5.22
## 10     6  2010 Cara~ RS     -28.3 -51.7 soybean       70.7       8.13
## # ... with 661 more rows, and 3 more variables: especie <chr>,
## #   quimiotipo <chr>, index <int>

4.8 Encontrar duplicatas

Para encontrar registros únicos ou duplicados no data frame usa-se a função unique e duplicate.

unique(survey3) # acha linhas únicas

## # A tibble: 213 x 3
##    field location            species
##    <dbl> <chr>               <chr>  
##  1    25 Agua Santa          Fgra   
##  2    26 Agua Santa          Fgra   
##  3    26 Agua Santa          Fmer   
##  4    36 Agua Santa          Fgra   
##  5    48 Antonio Prado       Fcor   
##  6    49 Antonio Prado       Fgra   
##  7    NA Apucarana           Fgra   
##  8    NA Apucarana           Fmer   
##  9    NA Arapongas           Fgra   
## 10    NA Assis Chateaubriand Fmer   
## # ... with 203 more rows
…
